Zaj_6.4_Text_mining_BoW__Pełna_analiza_jednego_pliku_v2.R
…
tidy_tokeny <- as_tibble(freq_df)

# Analiza sentymentu przy użyciu słownika Loughran ----

# Użycie inner_join()
tidy_tokeny %>%
  inner_join(loughran, relationship = "many-to-many")

## Joining with `by = join_by(word)`

## # A tibble: 128 × 3
##    word        freq sentiment
##    <chr>      <dbl> <chr>    
##  1 beautiful     17 positive 
##  2 law           12 litigious
##  3 dangerous     11 negative 
##  4 bad            9 negative 
##  5 strong         9 positive 
##  6 arrests        8 negative 
##  7 illegal        8 negative 
##  8 successful     8 positive 
##  9 criminal       7 negative 
## 10 criminal       7 litigious
## # ℹ 118 more rows
…
# Zliczanie, które słowa są najczęstsze
# dla danego sentymentu
sentiment_review %>%
  group_by(sentiment) %>%
  arrange(desc(freq)) %>%
  ungroup()

## # A tibble: 128 × 3
##    word        freq sentiment
##    <chr>      <dbl> <chr>    
##  1 beautiful     17 positive 
##  2 law           12 litigious
##  3 dangerous     11 negative 
##  4 bad            9 negative 
##  5 strong         9 positive 
##  6 arrests        8 negative 
##  7 illegal        8 negative 
##  8 successful     8 positive 
##  9 criminal       7 negative 
## 10 criminal       7 litigious
## # ℹ 118 more rows
…
# Zliczanie, które słowa są najczęstsze
# dla danego sentymentu
sentiment_review_nrc %>%
  group_by(sentiment) %>%
  arrange(desc(freq)) %>%
  ungroup()

## # A tibble: 914 × 3
##    word    freq sentiment   
##    <chr>  <dbl> <chr>       
##  1 job       22 positive    
##  2 love      22 joy         
##  3 love      22 positive    
##  4 nation    19 trust       
##  5 money     18 anger       
##  6 money     18 anticipation
##  7 money     18 joy         
##  8 money     18 positive    
##  9 money     18 surprise    
## 10 money     18 trust       
## # ℹ 904 more rows
…
## # A tibble: 2 × 2
##   sentiment     n
##   <chr>     <int>
## 1 negative    110
## 2 positive    114

# Zliczanie, które słowa są najczęstsze
# dla danego sentymentu
sentiment_review_bing %>%
  group_by(sentiment) %>%
  arrange(desc(freq)) %>%
  ungroup()

## # A tibble: 224 × 3
##    word       freq sentiment
##    <chr>     <dbl> <chr>    
##  1 love         22 positive 
##  2 beautiful    17 positive 
##  3 protect      12 positive 
##  4 dangerous    11 negative 
##  5 hard         10 negative 
##  6 bad           9 negative 
##  7 killed        9 negative 
##  8 powerful      9 positive 
##  9 strong        9 positive 
## 10 illegal       8 negative 
## # ℹ 214 more rows
…
# Zliczanie, które słowa są najczęstsze
# dla danego sentymentu
sentiment_review_afinn %>%
  group_by(value) %>%
  arrange(desc(freq)) %>%
  ungroup()

## # A tibble: 201 × 3
##    word       freq value
##    <chr>     <dbl> <int>
##  1 love         22     3
##  2 beautiful    17     3
##  3 united       13     1
##  4 protect      12     1
##  5 fight        10    -1
##  6 hard         10    -1
##  7 pay          10    -1
##  8 stop         10    -1
##  9 bad           9    -3
## 10 cuts          9    -1
## # ℹ 191 more rows
…
